[
	{
		"heroName":"Commander Shahnaz",
		"heroLevel":1
	},
	{
		"heroName":"Commander Clara",
		"heroLevel":1
	},
	{
		"heroName":"Commander Noverio",
		"heroLevel":1
	},
	{
		"heroName":"Commander Julius",
		"heroLevel":1
	},
	{
		"heroName":"Commander Alicia",
		"heroLevel":1
	},
	{
		"heroName":"Commander Reina",
		"heroLevel":1
	},
	{
		"heroName":"Commander Ben",
		"heroLevel":1
	},
	{
		"heroName":"Commander Axel",
		"heroLevel":1
	},
	{
		"heroName":"Keumalahayati",
		"heroLevel":1
	},
	{
		"heroName":"Gajah Mada",
		"heroLevel":1
	},
	{
		"heroName":"Prabu Siliwangi",
		"heroLevel":1
	},
	{
		"heroName":"Prince Dipenogoro",
		"heroLevel":1
	}
]