%YAML 1.1
%TAG !u! tag:unity3d.com,2011:
--- !u!114 &11400000
MonoBehaviour:
  m_ObjectHideFlags: 0
  m_CorrespondingSourceObject: {fileID: 0}
  m_PrefabInstance: {fileID: 0}
  m_PrefabAsset: {fileID: 0}
  m_GameObject: {fileID: 0}
  m_Enabled: 1
  m_EditorHideFlags: 0
  m_Script: {fileID: 11500000, guid: 3d7523830e5377e459520b55025838f2, type: 3}
  m_Name: DipenogoroSkillPassive1
  m_EditorClassIdentifier: 
  buffName: Gerilya Effect
  desc: You army has trapped in the enemy's ambush, decrease your troop's Attack speed
    by 50%. lasting for 6 seconds
  type: 1
  caseDeactive: 1
  limit: 6
  caseActive: 0
  requirement: 0
  status:
    health: 0
    phyAttack: 0
    phyDeffense: 0
    magAttack: 0
    magDeffense: 0
    counterAttackRate: 0
    range: 0
    attackSpeed: -0.5
    movementSpeed: 0
