%YAML 1.1
%TAG !u! tag:unity3d.com,2011:
--- !u!114 &11400000
MonoBehaviour:
  m_ObjectHideFlags: 0
  m_CorrespondingSourceObject: {fileID: 0}
  m_PrefabInstance: {fileID: 0}
  m_PrefabAsset: {fileID: 0}
  m_GameObject: {fileID: 0}
  m_Enabled: 1
  m_EditorHideFlags: 0
  m_Script: {fileID: 11500000, guid: ea1815f01a362724aa3e603126c5a381, type: 3}
  m_Name: Commander Alicia
  m_EditorClassIdentifier: 
  heroName: Commander Alicia
  nick: Alicia
  desc: "\tAlicia was a talented commander of your era, her city on earth was scorched
    when the invaders came to her city. to reclaim his city and restore the state
    of the Indonesia he accept your call to help repel the invaders."
  heroesClass: 2
  icon: {fileID: 21300000, guid: 260bfc9536083834a9d693e41f616504, type: 3}
  idle: {fileID: 21300000, guid: af4c0d76bcc26e541b27f1e42d51f452, type: 3}
  status:
    health: 8500
    phyAttack: 700
    phyDeffense: 200
    magAttack: 125
    magDeffense: 180
    counterAttackRate: 0.5
    range: 1
    attackSpeed: 1
    movementSpeed: 230
  skill: []
  prefabsHeroes: {fileID: 0}
