%YAML 1.1
%TAG !u! tag:unity3d.com,2011:
--- !u!114 &11400000
MonoBehaviour:
  m_ObjectHideFlags: 0
  m_CorrespondingSourceObject: {fileID: 0}
  m_PrefabInstance: {fileID: 0}
  m_PrefabAsset: {fileID: 0}
  m_GameObject: {fileID: 0}
  m_Enabled: 1
  m_EditorHideFlags: 0
  m_Script: {fileID: 11500000, guid: ea1815f01a362724aa3e603126c5a381, type: 3}
  m_Name: Commander Axel
  m_EditorClassIdentifier: 
  heroName: Commander Axel
  nick: Axel
  desc: "\tAxel is a sniper from the Dayak tribe, ready to unite to defeat the invaders
    with his trademark uniform Upak Nyamu. he and his army are under your command."
  heroesClass: 1
  icon: {fileID: 21300000, guid: c870924b7025b9b4485f61704df60504, type: 3}
  idle: {fileID: 21300000, guid: c8c2e6875b3590440aef8435104bb31f, type: 3}
  status:
    health: 5000
    phyAttack: 600
    phyDeffense: 130
    magAttack: 100
    magDeffense: 100
    counterAttackRate: 0.4
    range: 4
    attackSpeed: 1.8
    movementSpeed: 110
  skill: []
  prefabsHeroes: {fileID: 0}
