%YAML 1.1
%TAG !u! tag:unity3d.com,2011:
--- !u!114 &11400000
MonoBehaviour:
  m_ObjectHideFlags: 0
  m_CorrespondingSourceObject: {fileID: 0}
  m_PrefabInstance: {fileID: 0}
  m_PrefabAsset: {fileID: 0}
  m_GameObject: {fileID: 0}
  m_Enabled: 1
  m_EditorHideFlags: 0
  m_Script: {fileID: 11500000, guid: ea1815f01a362724aa3e603126c5a381, type: 3}
  m_Name: Commander Noverio
  m_EditorClassIdentifier: 
  heroName: Commander Noverio
  nick: Noverio
  desc: "\tNoverio is a Minahasa tribe knight from North Sulawesi. he came asking
    for your help to restore the situation in his region. finally he joined your unit
    during the expulsion of invaders from Indonesia"
  heroesClass: 0
  icon: {fileID: 21300000, guid: 78da663192749a342945dd72ff5eff6b, type: 3}
  idle: {fileID: 21300000, guid: 4163cb825aa022b449b73d1b264a364b, type: 3}
  status:
    health: 9500
    phyAttack: 500
    phyDeffense: 310
    magAttack: 200
    magDeffense: 300
    counterAttackRate: 10
    range: 1
    attackSpeed: 2.5
    movementSpeed: 100
  skill: []
  prefabsHeroes: {fileID: 0}
