%YAML 1.1
%TAG !u! tag:unity3d.com,2011:
--- !u!114 &11400000
MonoBehaviour:
  m_ObjectHideFlags: 0
  m_CorrespondingSourceObject: {fileID: 0}
  m_PrefabInstance: {fileID: 0}
  m_PrefabAsset: {fileID: 0}
  m_GameObject: {fileID: 0}
  m_Enabled: 1
  m_EditorHideFlags: 0
  m_Script: {fileID: 11500000, guid: ea1815f01a362724aa3e603126c5a381, type: 3}
  m_Name: Commander Ben
  m_EditorClassIdentifier: 
  heroName: Commander Ben
  nick: Ben
  desc: "\tBen is a sniper from the Dayak tribe, ready to unite to defeat the invaders
    with his trademark uniform Upak Nyamu. he and his army are under your command."
  heroesClass: 1
  icon: {fileID: 21300000, guid: d1f2348abe03edf458ca8a5bc91f0bf1, type: 3}
  idle: {fileID: 21300000, guid: 929994594510faf48b17dc180ad1db00, type: 3}
  status:
    health: 5500
    phyAttack: 750
    phyDeffense: 200
    magAttack: 100
    magDeffense: 120
    counterAttackRate: 0.5
    range: 1
    attackSpeed: 0.3
    movementSpeed: 100
  skill: []
  prefabsHeroes: {fileID: 0}
