[
	{"heading" : "Character Status" ,
		"data" : [
			{
			"tittle" : "Health" , 
			"explanation" : "Character health indicator number"
			},
			{
			"tittle" : "Physical Attack" , 
			"explanation" : "Direct attacks by using objects or weapons such as swords, arrows, spears, etc. Can also be punches or kicks."
			},
			{
			"tittle" : "Magical Attack" , 
			"explanation" : "Attacks that use magic energy or supernatural powers such as raising and throwing fireballs at enemies, elemental swords,  elemental bow, etc." 
			},
			{
			"tittle" : "Physical Deff" , 
			"explanation" : "Physical attack resistance" 
			},
			{
			"tittle" : "Magical Deff" , 
			"explanation" : "Magical attack resistance" 
			},
			{
			"tittle" : "March Speed" , 
			"explanation" : "Movement speed of each unit" 
			},
			{
			"tittle" : "Attack Speed" , 
			"explanation" : "The time needed to attack the enemy once" 
			},
			{
			"tittle" : "Counter Attack" , 
			"explanation" : "The possibility of providing a counter attack each time hit by an attack" 
			},
			{
			"tittle" : "Attack Range" , 
			"explanation" : "Maximum attack range (units of tiles or small boxes on the map)" 
			}	
		]
	},
	{"heading" : "Group Name" , 
	"data" : [
			{
			"tittle" : "Unit" , 
			"explanation" : "Group of troops numbering less than 100 troops" 
			},
			{
			"tittle" : "Fireteam" ,
			"explanation" : "Group of troops numbering 101 troops to 500 troops" 
			},
			{
			"tittle" : "Squad" ,
			"explanation" : "Group of troops numbering 501 troops to 1000 troops" 
			},
			{
			"tittle" : "Platoon" ,
			"explanation" : "Group of troops numbering 1001 troops to 5000 troops" 
			},
			{
			"tittle" : "Squadron" ,
			"explanation" : "Group of troops numbering 5001 troops to 10000 troops" 
			},
			{
			"tittle" : "Battalion" ,
			"explanation" : "Group of troops numbering 10001 troops to 15000 troops" 
			},
			{
			"tittle" : "Regiment" ,
			"explanation" : "Group of troops numbering 15001 troops to 22500 troops" 
			},
			{
			"tittle" : "Division" ,
			"explanation" : "Group of troops numbering 22501 troops to 30000 troops" 
			},
			{
			"tittle" : "Corps" ,
			"explanation" : "Group of troops numbering 30001 troops to 40000 troops" 
			}
		]
	},
	{"heading" : "Battlegrounds" , 
	"data" : [
			{
			"tittle" : "Landmark" , 
			"explanation" : "A place that must be occupied and defended to get points to win" 
			},
			{
			"tittle" : "Lake" , 
			"explanation" : "A large and deep puddle of water that cannot be passed or occupied by troops" 
			},
			{
			"tittle" : "Crack" ,
			"explanation" : "cracks in the ground which made a hole so that the place cannot be occupied by troops" 
			},
			{
			"tittle" : "Ground" ,
			"explanation" : "Penjelasan" 
			},
			{
			"tittle" : "Hospital" ,
			"explanation" : "A place for treatment or health care. if you occupy this place it will get a healing effect" 
			},
			{
			"tittle" : "Embassy" ,
			"explanation" : "Embassy or place for diplomacy. During occupying this place it will get a double point effect. " 
			}
		]
	},
	{"heading" : "temp2" , 
	"data" : [
			{
			"tittle" : "Attack" , 
			"explanation" : "Penjelasan" 
			},
			{
			"tittle" : "Deff" , 
			"explanation" : "Penjelasan" 
			}
		]
	}
]