%YAML 1.1
%TAG !u! tag:unity3d.com,2011:
--- !u!114 &11400000
MonoBehaviour:
  m_ObjectHideFlags: 0
  m_CorrespondingSourceObject: {fileID: 0}
  m_PrefabInstance: {fileID: 0}
  m_PrefabAsset: {fileID: 0}
  m_GameObject: {fileID: 0}
  m_Enabled: 1
  m_EditorHideFlags: 0
  m_Script: {fileID: 11500000, guid: de97e69bfac05534db26146ce9bb62ea, type: 3}
  m_Name: Trickster
  m_EditorClassIdentifier: 
  armyName: Trickster
  classArmy: 1
  status:
    health: 1200
    phyAttack: 280
    phyDeffense: 20
    magAttack: 50
    magDeffense: 10
    counterAttackRate: 0.3
    range: 2
    attackSpeed: 0.2
    movementSpeed: 135
  description: Soldiers armed with bow who fight in the middle lines because they
    have a distance that is not too far away. This soldier has a large physical attack
    and a large attack speed but the attack distance is not too far away and the defense
    is also not too strong.
  requirement:
    food: 4
    gold: 0
    stone: 1
    wood: 5
