{
  "project_info": {
    "project_number": "534646306591",
    "firebase_url": "https://project-kingdomboard.firebaseio.com",
    "project_id": "project-kingdomboard",
    "storage_bucket": "project-kingdomboard.appspot.com"
  },
  "client": [
    {
      "client_info": {
        "mobilesdk_app_id": "1:534646306591:android:2aa074fa1692477a9f622a",
        "android_client_info": {
          "package_name": "com.inigroup.royaleheroes"
        }
      },
      "oauth_client": [
        {
          "client_id": "534646306591-rvt239pa73q4sofp84r3kl9lduu1l06j.apps.googleusercontent.com",
          "client_type": 1,
          "android_info": {
            "package_name": "com.inigroup.royaleheroes",
            "certificate_hash": "d882994ab191f7ad663ad5e1a5cc4ab98f595001"
          }
        },
        {
          "client_id": "534646306591-4mqpiscm3gsa7pmamehabdsfr7sr9shc.apps.googleusercontent.com",
          "client_type": 1,
          "android_info": {
            "package_name": "com.inigroup.royaleheroes",
            "certificate_hash": "00a1fec9ba2cd75cdeccec3447086ce9bc59b1e5"
          }
        },
        {
          "client_id": "534646306591-e44hu8kljk3avjm1iljp0edo2761h0vm.apps.googleusercontent.com",
          "client_type": 3
        }
      ],
      "api_key": [
        {
          "current_key": "AIzaSyBhTeSGJfOYhflm0u7n8RsCvx3zSOsUpL8"
        }
      ],
      "services": {
        "appinvite_service": {
          "other_platform_oauth_client": [
            {
              "client_id": "534646306591-e44hu8kljk3avjm1iljp0edo2761h0vm.apps.googleusercontent.com",
              "client_type": 3
            }
          ]
        }
      }
    }
  ],
  "configuration_version": "1"
}