%YAML 1.1
%TAG !u! tag:unity3d.com,2011:
--- !u!114 &11400000
MonoBehaviour:
  m_ObjectHideFlags: 0
  m_CorrespondingSourceObject: {fileID: 0}
  m_PrefabInstance: {fileID: 0}
  m_PrefabAsset: {fileID: 0}
  m_GameObject: {fileID: 0}
  m_Enabled: 1
  m_EditorHideFlags: 0
  m_Script: {fileID: 11500000, guid: 3d7523830e5377e459520b55025838f2, type: 3}
  m_Name: Center Strategy Buff
  m_EditorClassIdentifier: 
  buffName: Center Strategy Buff
  desc: Strategy has been made, carry out and defeat the enemy. increase all status
    by 5 for each army.
  type: 0
  caseDeactive: 1
  limit: 60
  caseActive: 0
  requirement: 0
  status:
    health: 5
    phyAttack: 5
    phyDeffense: 5
    magAttack: 5
    magDeffense: 5
    counterAttackRate: 0
    range: 0
    attackSpeed: 0
    movementSpeed: 0.05
