%YAML 1.1
%TAG !u! tag:unity3d.com,2011:
--- !u!114 &11400000
MonoBehaviour:
  m_ObjectHideFlags: 0
  m_CorrespondingSourceObject: {fileID: 0}
  m_PrefabInstance: {fileID: 0}
  m_PrefabAsset: {fileID: 0}
  m_GameObject: {fileID: 0}
  m_Enabled: 1
  m_EditorHideFlags: 0
  m_Script: {fileID: 11500000, guid: de97e69bfac05534db26146ce9bb62ea, type: 3}
  m_Name: Swordsman
  m_EditorClassIdentifier: 
  armyName: Swordsman
  classArmy: 0
  status:
    health: 2800
    phyAttack: 230
    phyDeffense: 220
    magAttack: 0
    magDeffense: 50
    counterAttackRate: 0.1
    range: 1
    attackSpeed: 1.5
    movementSpeed: 65
  description: Infantry class warriors who fight in the front lines using armor and
    shields so that it has a strong defense. This soldier uses the sword as a weapon
    to attack his enemy.
  requirement:
    food: 3
    gold: 0
    stone: 5
    wood: 2
